[
  {
    "title":"20,000 Leagues Under the Sea",
    "author":"Jules Verne"
  },
  {
    "title":"A Christmas Carol",
    "author":"Charles Dickens"
  },
  {
    "title":"A Midsummer Night's Dream",
    "author":"William Shakespeare"
  },
  {
    "title":"A Tale of Two Cities",
    "author":"Charles Dickens"
  },
  {
    "title":"Adam Bede",
    "author":"George Eliot"
  },
  {
    "title":"Adventures of Huckleberry Finn",
    "author":"Mark Twain"
  },
  {
    "title":"Adventures of Sherlock Holmes",
    "author":"Arthur Conan Doyle"
  },
  {
    "title":"Adventures of Tom Sawyer",
    "author":"Mark Twain"
  },
  {
    "title":"Alice's Adventures in Wonderland",
    "author":"Lewis Carroll"
  },
  {
    "title":"All's Well That Ends Well",
    "author":"William Shakespeare"
  },
  {
    "title":"Anthony and Cleopatra",
    "author":"William Shakespeare"
  },
  {
    "title":"Around the World in Eighty Days",
    "author":"Jules Verne"
  },
  {
    "title":"As You Like It",
    "author":"William Shakespeare"
  },
  {
    "title":"Barchester Towers",
    "author":"Anthony Trollope"
  },
  {
    "title":"Barnaby Rudge",
    "author":"Charles Dickens"
  },
  {
    "title":"Black Beauty",
    "author":"Anna Sewell"
  },
  {
    "title":"Bleak House",
    "author":"Charles Dickens"
  },
  {
    "title":"David Copperfield",
    "author":"Charles Dickens"
  },
  {
    "title":"Dombey and Son",
    "author":"Charles Dickens"
  },
  {
    "title":"Emma",
    "author":"Jane Austen"
  },
  {
    "title":"Far From The Madding Crowd",
    "author":"Thomas Hardy"
  },
  {
    "title":"Great Expectations",
    "author":"Charles Dickens"
  },
  {
    "title":"Gulliver's Travels",
    "author":"Jonathan Swift"
  },
  {
    "title":"Hamlet",
    "author":"William Shakespeare"
  },
  {
    "title":"Hard Times",
    "author":"Charles Dickens"
  },
  {
    "title":"Henry V",
    "author":"William Shakespeare"
  },
  {
    "title":"Ivanhoe",
    "author":"Sir Walter Scott"
  },
  {
    "title":"Jane Eyre",
    "author":"Charlotte Brontë"
  },
  {
    "title":"Julius Caesar",
    "author":"William Shakespeare"
  },
  {
    "title":"Kidnapped",
    "author":"Robert Louis Stevenson"
  },
  {
    "title":"King Lear",
    "author":"William Shakespeare"
  },
  {
    "title":"King Solomon's Mines",
    "author":"Rider Haggard"
  },
  {
    "title":"Last of the Mohicans",
    "author":"James Fenimore Cooper"
  },
  {
    "title":"Les Misérables",
    "author":"Victor Hugo"
  },
  {
    "title":"Little Lord Fauntleroy",
    "author":"Frances Hodgson Burnett"
  },
  {
    "title":"Little Women",
    "author":"Louisa May Alcott"
  },
  {
    "title":"Lord Jim",
    "author":"Joseph Conrad"
  },
  {
    "title":"Lorna Doone",
    "author":"R D Blackmore"
  },
  {
    "title":"Love's Labours Lost",
    "author":"William Shakespeare"
  },
  {
    "title":"Macbeth",
    "author":"William Shakespeare"
  },
  {
    "title":"Mansfield Park",
    "author":"Jane Austen"
  },
  {
    "title":"Martin Chuzzlewit",
    "author":"Charles Dickens"
  },
  {
    "title":"Middlemarch",
    "author":"George Eliot"
  },
  {
    "title":"Moby Dick",
    "author":"Herman Melville"
  },
  {
    "title":"Much Ado About Nothing",
    "author":"William Shakespeare"
  },
  {
    "title":"Nicholas Nickleby",
    "author":"Charles Dickens"
  },
  {
    "title":"Oliver Twist",
    "author":"Charles Dickens"
  },
  {
    "title":"Othello",
    "author":"William Shakespeare"
  },
  {
    "title":"Persuasion",
    "author":"Jane Austen"
  },
  {
    "title":"Pilgrim's Progress",
    "author":"John Bunyan"
  },
  {
    "title":"Pride and Prejudice",
    "author":"Jane Austen"
  },
  {
    "title":"Richard III",
    "author":"William Shakespeare"
  },
  {
    "title":"Rob Roy",
    "author":"Sir Walter Scott"
  },
  {
    "title":"Robinson Crusoe",
    "author":"Daniel Defoe"
  },
  {
    "title":"Romeo And Juliet",
    "author":"William Shakespeare"
  },
  {
    "title":"Sense and Sensibility",
    "author":"Jane Austen"
  },
  {
    "title":"Shirley",
    "author":"Charlotte Brontë"
  },
  {
    "title":"Sons and Lovers",
    "author":"D.H. Lawrence"
  },
  {
    "title":"Tales of Mystery and Imagination",
    "author":"Edgar Allan Poe"
  },
  {
    "title":"Tess of the d'Urbervilles",
    "author":"Thomas Hardy"
  },
  {
    "title":"The Adventures of Pinocchio",
    "author":"Carlo Collodi"
  },
  {
    "title":"The Call of the Wild",
    "author":"Jack London"
  },
  {
    "title":"The Casebook of Sherlock Holmes",
    "author":"Arthur Conan Doyle"
  },
  {
    "title":"The Comedy of Errors",
    "author":"William Shakespeare"
  },
  {
    "title":"The Count of Monte Cristo",
    "author":"Alexandre Dumas"
  },
  {
    "title":"The Hunchback of Notre-Dame",
    "author":"Victor Hugo"
  },
  {
    "title":"The Importance of Being Earnest",
    "author":"Oscar Wilde"
  },
  {
    "title":"The Mayor Of Casterbridge",
    "author":"Thomas Hardy"
  },
  {
    "title":"The Merchant of Venice",
    "author":"William Shakespeare"
  },
  {
    "title":"The Mill on the Floss",
    "author":"George Eliot"
  },
  {
    "title":"The Moonstone",
    "author":"Wilkie Collins"
  },
  {
    "title":"The Old Curiosity Shop",
    "author":"Charles Dickens"
  },
  {
    "title":"The Phantom Of The Opera",
    "author":"Gaston Leroux"
  },
  {
    "title":"The Pickwick Papers",
    "author":"Charles Dickens"
  },
  {
    "title":"The Picture of Dorian Gray",
    "author":"Oscar Wilde"
  },
  {
    "title":"The Professor",
    "author":"Charlotte Brontë"
  },
  {
    "title":"The Scarlet Letter",
    "author":"Nathaniel Hawthorne"
  },
  {
    "title":"The Secret Garden",
    "author":"Frances Hodgson Burnett"
  },
  {
    "title":"The Sketch Book of Geoffrey Crayon, Gent.",
    "author":"Washington Irving"
  },
  {
    "title":"The Strange Case of Dr Jekyll and Mr Hyde",
    "author":"Robert Louis Stevenson"
  },
  {
    "title":"The Taming Of The Shrew",
    "author":"William Shakespeare"
  },
  {
    "title":"The Tempest",
    "author":"William Shakespeare"
  },
  {
    "title":"The Tenant of Wildfell Hall",
    "author":"Anne Brontë"
  },
  {
    "title":"The Three Musketeers",
    "author":"Alexandre Dumas"
  },
  {
    "title":"The Winter's Tale",
    "author":"William Shakespeare"
  },
  {
    "title":"The Woman in White",
    "author":"Wilkie Collins"
  },
  {
    "title":"Through The Looking Glass",
    "author":"Lewis Carroll"
  },
  {
    "title":"Timon of Athens",
    "author":"William Shakespeare"
  },
  {
    "title":"Titus Andronicus",
    "author":"William Shakespeare"
  },
  {
    "title":"Treasure Island",
    "author":"Robert Louis Stevenson"
  },
  {
    "title":"Twelfth Night",
    "author":"William Shakespeare"
  },
  {
    "title":"Uncle Tom's Cabin",
    "author":"Harriet Beecher Stowe"
  },
  {
    "title":"Under the Greenwood Tree",
    "author":"Thomas Hardy"
  },
  {
    "title":"Vanity Fair",
    "author":"William Thackeray"
  },
  {
    "title":"Villette",
    "author":"Charlotte Brontë"
  },
  {
    "title":"Waverley",
    "author":"Sir Walter Scott"
  },
  {
    "title":"Westward Ho!",
    "author":"Charles Kingsley"
  },
  {
    "title":"What Katy Did",
    "author":"Susan Coolidge"
  },
  {
    "title":"White Fang",
    "author":"Jack London"
  },
  {
    "title":"Wuthering Heights",
    "author":"Emily Brontë"
  }
]